pipeline-cpu/user/sim/wave.vcd
$date
	Fri Mar  1 17:01:45 2024
$end
$version
	Icarus Verilog
$end
$timescale
	1ps
$end
$scope module testbench $end
$var parameter 32 ! ADDR_WIDTH $end
$var parameter 32 " DATA_WIDTH $end
$var parameter 32 # MAIN_FRE $end
$var reg 32 $ addr [31:0] $end
$var reg 32 % data [31:0] $end
$var reg 1 & sys_clk $end
$var reg 1 ' sys_rst $end
$scope module u_PipeLineCPU $end
$var wire 1 & clk $end
$var wire 1 ( rtype_out_ID $end
$var wire 1 ) rtype $end
$var wire 6 * op [5:0] $end
$var wire 32 + instruction_out [31:0] $end
$var wire 32 , instruction [31:0] $end
$var wire 16 - imm16_out [15:0] $end
$var wire 16 . imm16 [15:0] $end
$var wire 6 / func_out [5:0] $end
$var wire 6 0 func [5:0] $end
$var wire 30 1 curAddr [29:0] $end
$var wire 32 2 busB_out [31:0] $end
$var wire 32 3 busB [31:0] $end
$var wire 32 4 busA_out [31:0] $end
$var wire 32 5 busA [31:0] $end
$var wire 1 6 branch_out_ID $end
$var wire 1 7 branch $end
$var wire 1 8 Zero_out $end
$var wire 1 9 Zero $end
$var wire 5 : Rw_out_Mem [4:0] $end
$var wire 5 ; Rw_out [4:0] $end
$var wire 5 < Rt_out [4:0] $end
$var wire 5 = Rt [4:0] $end
$var wire 5 > Rs [4:0] $end
$var wire 1 ? RegWr_out_Mem $end
$var wire 1 @ RegWr_out_ID $end
$var wire 1 A RegWr_out_EX $end
$var wire 1 B RegWr $end
$var wire 1 C RegDst_out_ID $end
$var wire 1 D RegDst $end
$var wire 5 E Rd_out [4:0] $end
$var wire 5 F Rd [4:0] $end
$var wire 1 G Overflow_out_Mem $end
$var wire 1 H Overflow_out $end
$var wire 1 I Overflow $end
$var wire 1 J MemtoReg_out_Mem $end
$var wire 1 K MemtoReg_out_ID $end
$var wire 1 L MemtoReg_out_EX $end
$var wire 1 M MemtoReg $end
$var wire 1 N MemWr_out_ID $end
$var wire 1 O MemWr_out_EX $end
$var wire 1 P MemWr $end
$var wire 32 Q MemData_out [31:0] $end
$var wire 1 R Jump_out_ID $end
$var wire 1 S Jump_out_EX $end
$var wire 1 T Jump $end
$var wire 30 U Jtarg_out_ID [29:0] $end
$var wire 30 V Jtarg_out [29:0] $end
$var wire 30 W Jtarg [29:0] $end
$var wire 4 X J [3:0] $end
$var wire 1 Y ExtOp_out_ID $end
$var wire 1 Z ExtOp $end
$var wire 32 [ Do [31:0] $end
$var wire 32 \ Di_out [31:0] $end
$var wire 30 ] Btarg_out [29:0] $end
$var wire 30 ^ Btarg [29:0] $end
$var wire 1 _ Branch_out_EX $end
$var wire 30 ` B_out_IF [29:0] $end
$var wire 30 a B_out_ID [29:0] $end
$var wire 30 b B [29:0] $end
$var wire 32 c Addr_out [31:0] $end
$var wire 32 d ALUout [31:0] $end
$var wire 1 e ALUSrc_out_ID $end
$var wire 1 f ALUSrc $end
$var wire 3 g ALUOp_out_ID [2:0] $end
$var wire 3 h ALUOp [2:0] $end
$var wire 32 i ALUData_out [31:0] $end
$scope module u_EXReg $end
$var wire 5 j Rw [4:0] $end
$var wire 1 & clk $end
$var wire 1 9 Zero $end
$var wire 1 @ RegWr $end
$var wire 1 I Overflow $end
$var wire 1 K MemtoReg $end
$var wire 1 N MemWr $end
$var wire 1 R Jump $end
$var wire 30 k Jtarg [29:0] $end
$var wire 32 l DataIn [31:0] $end
$var wire 30 m Btarg [29:0] $end
$var wire 1 6 Branch $end
$var wire 32 n ALUout [31:0] $end
$var reg 32 o Addr_out [31:0] $end
$var reg 1 _ Branch_out $end
$var reg 30 p Btarg_out [29:0] $end
$var reg 32 q Di_out [31:0] $end
$var reg 30 r Jtarg_out [29:0] $end
$var reg 1 S Jump_out $end
$var reg 1 O MemWr_out $end
$var reg 1 L MemtoReg_out $end
$var reg 1 H Overflow_out $end
$var reg 1 A RegWr_out $end
$var reg 5 s Rw_out [4:0] $end
$var reg 1 8 Zero_out $end
$upscope $end
$scope module u_ExecUnit $end
$var wire 32 t imm32 [31:0] $end
$var wire 16 u imm16 [15:0] $end
$var wire 6 v func [5:0] $end
$var wire 32 w busB [31:0] $end
$var wire 32 x busA [31:0] $end
$var wire 1 9 Zero $end
$var wire 1 ( Rtype $end
$var wire 1 I Overflow $end
$var wire 1 Y ExtOp $end
$var wire 30 y B [29:0] $end
$var wire 32 z ALUout [31:0] $end
$var wire 3 { ALUop [2:0] $end
$var wire 3 | ALUctr1 [2:0] $end
$var wire 1 e ALUSrc $end
$var reg 30 } Btarg [29:0] $end
$var reg 3 ~ ctr [2:0] $end
$var reg 32 !" rhs [31:0] $end
$scope module u_ALU $end
$var wire 3 "" ALUctr [2:0] $end
$var wire 32 #" B [31:0] $end
$var wire 1 I Overflow $end
$var wire 1 $" mux2_op1 $end
$var wire 1 %" mux2_op2 $end
$var wire 32 &" mux3_op3 [31:0] $end
$var wire 32 '" mux3_op2 [31:0] $end
$var wire 1 (" less $end
$var wire 1 9 Zero $end
$var wire 32 )" SUBctr_ext [31:0] $end
$var wire 1 *" SUBctr $end
$var wire 1 +" SIGctr $end
$var wire 32 ," Result [31:0] $end
$var wire 1 -" OVctr $end
$var wire 2 ." OPctr [1:0] $end
$var wire 32 /" B_to_add [31:0] $end
$var wire 1 0" Add_Sign $end
$var wire 32 1" Add_Result [31:0] $end
$var wire 1 2" Add_Overflow $end
$var wire 1 3" Add_Carry $end
$var wire 32 4" A [31:0] $end
$var parameter 32 5" n $end
$scope module adder $end
$var wire 1 3" Add_Carry $end
$var wire 1 2" Add_Overflow $end
$var wire 1 9 Zero $end
$var wire 1 6" cout $end
$var wire 1 *" Cin $end
$var wire 32 7" B [31:0] $end
$var wire 1 0" Add_Sign $end
$var wire 32 8" Add_Result [31:0] $end
$var wire 32 9" A [31:0] $end
$var parameter 32 :" n $end
$upscope $end
$scope module extend $end
$var wire 1 *" SUBctr $end
$var reg 32 ;" extend_out [31:0] $end
$upscope $end
$scope module gen $end
$var wire 3 <" ALUctr [2:0] $end
$var parameter 32 =" n $end
$var reg 2 >" OPctr [1:0] $end
$var reg 1 -" OVctr $end
$var reg 1 +" SIGctr $end
$var reg 1 *" SUBctr $end
$upscope $end
$scope module mux1 $end
$var wire 1 $" choice1 $end
$var wire 1 %" choice2 $end
$var wire 1 +" sel $end
$var reg 1 (" out $end
$upscope $end
$scope module mux2 $end
$var wire 1 (" sel $end
$var reg 32 ?" out [31:0] $end
$upscope $end
$scope module mux3 $end
$var wire 32 @" choice1 [31:0] $end
$var wire 32 A" choice3 [31:0] $end
$var wire 2 B" sel [1:0] $end
$var wire 32 C" choice2 [31:0] $end
$var parameter 32 D" n $end
$var reg 32 E" out [31:0] $end
$upscope $end
$scope module or_gate $end
$var wire 32 F" operendB [31:0] $end
$var wire 32 G" out [31:0] $end
$var wire 32 H" operendA [31:0] $end
$var parameter 32 I" n $end
$upscope $end
$scope module x $end
$var wire 32 J" operendA [31:0] $end
$var wire 32 K" operendB [31:0] $end
$var parameter 32 L" n $end
$var reg 32 M" out [31:0] $end
$upscope $end
$upscope $end
$scope module u_ALUctr $end
$var wire 6 N" func [5:0] $end
$var reg 3 O" ALUctr [2:0] $end
$upscope $end
$scope module u_ExtendByOp $end
$var wire 32 P" imm32 [31:0] $end
$var wire 16 Q" imm16 [15:0] $end
$var wire 1 Y ExtOp $end
$upscope $end
$upscope $end
$scope module u_IDReg $end
$var wire 5 R" Rd [4:0] $end
$var wire 5 S" Rt [4:0] $end
$var wire 1 & clk $end
$var wire 6 T" func [5:0] $end
$var wire 16 U" imm16 [15:0] $end
$var wire 1 ) rtype $end
$var wire 32 V" busB [31:0] $end
$var wire 32 W" busA [31:0] $end
$var wire 1 7 branch $end
$var wire 1 B RegWr $end
$var wire 1 D RegDst $end
$var wire 1 M MemtoReg $end
$var wire 1 P MemWr $end
$var wire 1 T Jump $end
$var wire 30 X" Jtarg [29:0] $end
$var wire 1 Z ExtOp $end
$var wire 30 Y" B [29:0] $end
$var wire 1 f ALUSrc $end
$var wire 3 Z" ALUOp [2:0] $end
$var reg 3 [" ALUOp_out [2:0] $end
$var reg 1 e ALUSrc_out $end
$var reg 30 \" B_out [29:0] $end
$var reg 1 Y ExtOp_out $end
$var reg 30 ]" Jtarg_out [29:0] $end
$var reg 1 R Jump_out $end
$var reg 1 N MemWr_out $end
$var reg 1 K MemtoReg_out $end
$var reg 5 ^" Rd_out [4:0] $end
$var reg 1 C RegDst_out $end
$var reg 1 @ RegWr_out $end
$var reg 5 _" Rt_out [4:0] $end
$var reg 1 6 branch_out $end
$var reg 32 `" busA_out [31:0] $end
$var reg 32 a" busB_out [31:0] $end
$var reg 6 b" func_out [5:0] $end
$var reg 16 c" imm16_out [15:0] $end
$var reg 1 ( rtype_out $end
$upscope $end
$scope module u_IFReg $end
$var wire 1 & clk $end
$var wire 32 d" instruction [31:0] $end
$var wire 4 e" J [3:0] $end
$var wire 30 f" B [29:0] $end
$var reg 30 g" B_out [29:0] $end
$var reg 30 h" Jtarg [29:0] $end
$var reg 32 i" instruction_out [31:0] $end
$upscope $end
$scope module u_IUnit $end
$var wire 32 j" instruction [31:0] $end
$var wire 30 k" PC [29:0] $end
$var reg 30 l" B [29:0] $end
$var reg 4 m" J [3:0] $end
$scope module im $end
$var wire 32 n" InsAddr [31:0] $end
$var reg 32 o" InsData [31:0] $end
$upscope $end
$upscope $end
$scope module u_InstructionDecode $end
$var wire 1 f ALUSrc $end
$var wire 1 Z ExtOp $end
$var wire 1 T Jump $end
$var wire 1 P MemWr $end
$var wire 1 M MemtoReg $end
$var wire 1 D RegDst $end
$var wire 1 B RegWr $end
$var wire 1 7 branch $end
$var wire 6 p" op [5:0] $end
$var wire 1 q" sw $end
$var wire 1 ) rtype $end
$var wire 1 r" ori $end
$var wire 1 s" lw $end
$var wire 1 t" jump $end
$var wire 1 u" beq $end
$var wire 1 v" addiu $end
$var wire 3 w" ALUOp [2:0] $end
$upscope $end
$scope module u_Mem $end
$var wire 32 x" Di [31:0] $end
$var wire 1 O MemWr $end
$var wire 32 y" RA [31:0] $end
$var wire 32 z" WA [31:0] $end
$var wire 1 & clk $end
$var reg 32 {" Do [31:0] $end
$upscope $end
$scope module u_MemReg $end
$var wire 32 |" ALUData [31:0] $end
$var wire 32 }" MemData [31:0] $end
$var wire 1 L MemtoReg $end
$var wire 1 H Overflow $end
$var wire 1 A RegWr $end
$var wire 5 ~" Rw [4:0] $end
$var wire 1 & clk $end
$var reg 32 !# ALUData_out [31:0] $end
$var reg 32 "# MemData_out [31:0] $end
$var reg 1 J MemtoReg_out $end
$var reg 1 G Overflow_out $end
$var reg 1 ? RegWr_out $end
$var reg 5 ## Rw_out [4:0] $end
$upscope $end
$scope module u_PC $end
$var wire 1 & clk $end
$var wire 30 $# nextAddr [29:0] $end
$var reg 30 %# curAddr [29:0] $end
$upscope $end
$scope module u_RFile $end
$var wire 32 &# Di [31:0] $end
$var wire 5 '# Ra [4:0] $end
$var wire 5 (# Rb [4:0] $end
$var wire 5 )# Rw [4:0] $end
$var wire 1 *# WE $end
$var wire 1 & clk $end
$var parameter 32 +# n $end
$var reg 32 ,# busA [31:0] $end
$var reg 32 -# busB [31:0] $end
$upscope $end
$upscope $end
$upscope $end
$enddefinitions $end
$comment Show the parameter values. $end
$dumpall
b100000 +#
b100000 L"
b100000 I"
b100000 D"
b11 ="
b100000 :"
b100000 5"
b1100100 #
b100000 "
b100000 !
$end
#0
$dumpvars
bx -#
bx ,#
x*#
bx )#
bx (#
bx '#
bx &#
b0 %#
bx $#
bx ##
bx "#
bx !#
bx ~"
bx }"
bx |"
bx {"
bx z"
bx y"
bx x"
bx w"
xv"
xu"
xt"
xs"
xr"
xq"
bx p"
b10001100000001000000000000000000 o"
b0 n"
b0 m"
b1 l"
b0 k"
b10001100000001000000000000000000 j"
bx i"
b0xxxxxxxxxxxxxxxxxxxxxxxxxx h"
b0 g"
b1 f"
b0 e"
b10001100000001000000000000000000 d"
bx c"
bx b"
bx a"
bx `"
bx _"
bx ^"
bx ]"
bx \"
bx ["
bx Z"
b0 Y"
b0xxxxxxxxxxxxxxxxxxxxxxxxxx X"
bx W"
bx V"
bx U"
bx T"
bx S"
bx R"
bx Q"
bx P"
bx O"
bx N"
bx M"
bx K"
bx J"
bx H"
bx G"
bx F"
bx E"
bx C"
bx B"
bx A"
bx @"
bx ?"
bx >"
bx <"
bx ;"
bx 9"
bx 8"
bx 7"
x6"
bx 4"
x3"
x2"
bx 1"
x0"
bx /"
bx ."
x-"
bx ,"
x+"
x*"
bx )"
x("
bx '"
bx &"
x%"
x$"
bx #"
bx ""
bx !"
bx ~
bx }
bx |
bx {
bx z
bx y
bx x
bx w
bx v
bx u
bx t
bx s
bx r
bx q
bx p
bx o
bx n
bx m
bx l
bx k
bx j
bx i
bx h
bx g
xf
xe
bx d
bx c
b1 b
bx a
b0 `
x_
bx ^
bx ]
bx \
bx [
xZ
xY
b0 X
b0xxxxxxxxxxxxxxxxxxxxxxxxxx W
bx V
bx U
xT
xS
xR
bx Q
xP
xO
xN
xM
xL
xK
xJ
xI
xH
xG
bx F
bx E
xD
xC
xB
xA
x@
x?
bx >
bx =
bx <
bx ;
bx :
x9
x8
x7
x6
bx 5
bx 4
bx 3
bx 2
b0 1
bx 0
bx /
bx .
bx -
b10001100000001000000000000000000 ,
bx +
bx *
x)
x(
1'
0&
b0 %
b0 $
$end
#50000
0'
#500000
b1 $
b1 %
1&
#1000000
1Z
1f
1B
b0 F
b0 R"
b100 =
b100 S"
b100 (#
b0 >
b0 '#
b0 .
b0 U"
b0 0
b0 T"
0D
0)
0r"
0v"
1M
1s"
0P
0q"
b0 h
b0 Z"
b0 w"
07
0u"
0T
0t"
b100011 *
b100011 p"
b0xxxxxxxxxxxxxxxxxxxxxxxxxx U
b0xxxxxxxxxxxxxxxxxxxxxxxxxx k
b0xxxxxxxxxxxxxxxxxxxxxxxxxx ]"
b0 a
b0 y
b0 \"
b10001100000001000000000000000000 +
b10001100000001000000000000000000 i"
b1000000000000000000 W
b1000000000000000000 X"
b1000000000000000000 h"
b1 `
b1 Y"
b1 g"
b10001100000001010000000000000000 ,
b10001100000001010000000000000000 d"
b10001100000001010000000000000000 j"
b10001100000001010000000000000000 o"
b10 b
b10 f"
b10 l"
b100 n"
b1 1
b1 k"
b1 %#
0&
#1500000
b10 %
b10 $
1&
#1510000
b0 5
b0 W"
b0 ,#
#2000000
0%"
b11111111111111111111111111111111 &"
b11111111111111111111111111111111 ?"
b11111111111111111111111111111111 A"
02"
1("
1$"
13"
00"
19
b0 d
b0 n
b0 z
b0 ,"
b0 E"
b0 1"
b0 8"
b0 @"
06"
b0 '"
b0 C"
b0 G"
b0 /"
b0 7"
b0 M"
0I
b0 )"
b0 ;"
b0 K"
b0 !"
b0 #"
b0 F"
b0 J"
b1 ^
b1 m
b1 }
b0 ."
b0 >"
b0 B"
0+"
0-"
0*"
b101 =
b101 S"
b101 (#
b100 j
b0 t
b0 P"
b0 ~
b0 ""
b0 <"
b10001100000001010000000000000000 +
b10001100000001010000000000000000 i"
b1010000000000000000 W
b1010000000000000000 X"
b1010000000000000000 h"
b10 `
b10 Y"
b10 g"
0(
b0 g
b0 {
b0 ["
1Y
0R
06
0N
1K
0C
1e
1@
b0 E
b0 ^"
b100 <
b100 _"
b0 4
b0 x
b0 4"
b0 9"
b0 H"
b0 `"
b0 -
b0 u
b0 Q"
b0 c"
b0 /
b0 v
b0 N"
b0 b"
b1000000000000000000 U
b1000000000000000000 k
b1000000000000000000 ]"
b1 a
b1 y
b1 \"
b0xxxxxxxxxxxxxxxxxxxxxxxxxx V
b0xxxxxxxxxxxxxxxxxxxxxxxxxx r
b10001100000111110000000000000000 ,
b10001100000111110000000000000000 d"
b10001100000111110000000000000000 j"
b10001100000111110000000000000000 o"
b11 b
b11 f"
b11 l"
b1000 n"
b10 1
b10 k"
b10 %#
0&
#2500000
b11 $
b11 %
1&
#3000000
b100 $#
b101 j
b10 ^
b10 m
b10 }
b11111 =
b11111 S"
b11111 (#
1A
1L
0S
0_
0O
b100 ;
b100 s
b100 ~"
b0 c
b0 o
b0 y"
b0 z"
b0 |"
0H
18
b1000000000000000000 V
b1000000000000000000 r
b1 ]
b1 p
b101 <
b101 _"
b1010000000000000000 U
b1010000000000000000 k
b1010000000000000000 ]"
b10 a
b10 y
b10 \"
b10001100000111110000000000000000 +
b10001100000111110000000000000000 i"
b111110000000000000000 W
b111110000000000000000 X"
b111110000000000000000 h"
b11 `
b11 Y"
b11 g"
b100 b
b100 f"
b100 l"
b1100 n"
b11 1
b11 k"
b11 %#
0&
#3500000
b1 [
b1 {"
b1 }"
b100 %
b100 $
1&
#4000000
b11111 j
b11 ^
b11 m
b11 }
1*#
b1 &#
b100 `
b100 Y"
b100 g"
b11111 <
b11111 _"
b111110000000000000000 U
b111110000000000000000 k
b111110000000000000000 ]"
b11 a
b11 y
b11 \"
b101 ;
b101 s
b101 ~"
b1010000000000000000 V
b1010000000000000000 r
b10 ]
b10 p
1?
1J
0G
b100 :
b100 ##
b100 )#
b0 i
b0 !#
b1 Q
b1 "#
b101 $#
b101 b
b101 f"
b101 l"
b10000 n"
b100 1
b100 k"
b100 %#
0&
#4500000
b101 $
b101 %
1&
#5000000
b100 ^
b100 m
b100 }
b101 :
b101 ##
b101 )#
b11111 ;
b11111 s
b11111 ~"
b111110000000000000000 V
b111110000000000000000 r
b11 ]
b11 p
b100 a
b100 y
b100 \"
b101 `
b101 Y"
b101 g"
b110 $#
b100001010011000000100000 ,
b100001010011000000100000 d"
b100001010011000000100000 j"
b100001010011000000100000 o"
b110 b
b110 f"
b110 l"
b10100 n"
b101 1
b101 k"
b101 %#
0&
#5500000
b110 %
b110 $
1&
#6000000
0Z
0f
1B
b110 F
b110 R"
b101 =
b101 S"
b101 (#
b100 >
b100 '#
b11000000100000 .
b11000000100000 U"
b100000 0
b100000 T"
b1 h
b1 Z"
b1 w"
1D
1)
0M
0s"
b0 *
b0 p"
b101 ^
b101 m
b101 }
b100001010011000000100000 +
b100001010011000000100000 i"
b100001010011000000100000 W
b100001010011000000100000 X"
b100001010011000000100000 h"
b110 `
b110 Y"
b110 g"
b101 a
b101 y
b101 \"
b100 ]
b100 p
b11111 :
b11111 ##
b11111 )#
b111 $#
b10001100000111110000000000000000 ,
b10001100000111110000000000000000 d"
b10001100000111110000000000000000 j"
b10001100000111110000000000000000 o"
b111 b
b111 f"
b111 l"
b11000 n"
b110 1
b110 k"
b110 %#
0&
#6500000
b111 $
b111 %
1&
#6510000
b1 3
b1 V"
b1 -#
b1 5
b1 W"
b1 ,#
#7000000
0I
02"
b0 &"
b0 ?"
b0 A"
0%"
0("
13"
00"
b10 d
b10 n
b10 z
b10 ,"
b10 E"
06"
1$"
1Z
1f
09
b0 ."
b0 >"
b0 B"
1+"
1-"
0*"
b1 /"
b1 7"
b1 M"
b110 j
b1 '"
b1 C"
b1 G"
b10 1"
b10 8"
b10 @"
b11000000100000 t
b11000000100000 P"
b1 |
b1 O"
b1 ~
b1 ""
b1 <"
b1 !"
b1 #"
b1 F"
b1 J"
b11000000100110 ^
b11000000100110 m
b11000000100110 }
b0 F
b0 R"
b11111 =
b11111 S"
b11111 (#
b0 >
b0 '#
b0 .
b0 U"
b0 0
b0 T"
b0 h
b0 Z"
b0 w"
0D
0)
1M
1s"
b100011 *
b100011 p"
b101 ]
b101 p
1(
b1 g
b1 {
b1 ["
0Y
0K
1C
0e
b110 E
b110 ^"
b101 <
b101 _"
b1 2
b1 l
b1 w
b1 a"
b1 4
b1 x
b1 4"
b1 9"
b1 H"
b1 `"
b11000000100000 -
b11000000100000 u
b11000000100000 Q"
b11000000100000 c"
b100000 /
b100000 v
b100000 N"
b100000 b"
b100001010011000000100000 U
b100001010011000000100000 k
b100001010011000000100000 ]"
b110 a
b110 y
b110 \"
b10001100000111110000000000000000 +
b10001100000111110000000000000000 i"
b111110000000000000000 W
b111110000000000000000 X"
b111110000000000000000 h"
b111 `
b111 Y"
b111 g"
b1000 $#
b1000 b
b1000 f"
b1000 l"
b11100 n"
b111 1
b111 k"
b111 %#
0&
#7500000
b1000 %
b1000 $
1&
#7510000
b0 5
b0 W"
b0 ,#
#8000000
19
b11111111111111111111111111111111 &"
b11111111111111111111111111111111 ?"
b11111111111111111111111111111111 A"
1("
b0 d
b0 n
b0 z
b0 ,"
b0 E"
0+"
0-"
b0 /"
b0 7"
b0 M"
b11111 j
b0 '"
b0 C"
b0 G"
b0 1"
b0 8"
b0 @"
b0 t
b0 P"
b0 ~
b0 ""
b0 <"
b0 !"
b0 #"
b0 F"
b0 J"
b111 ^
b111 m
b111 }
b1000 `
b1000 Y"
b1000 g"
0(
b0 g
b0 {
b0 ["
1Y
1K
0C
1e
b0 E
b0 ^"
b11111 <
b11111 _"
b0 4
b0 x
b0 4"
b0 9"
b0 H"
b0 `"
b0 -
b0 u
b0 Q"
b0 c"
b0 /
b0 v
b0 N"
b0 b"
b111110000000000000000 U
b111110000000000000000 k
b111110000000000000000 ]"
b111 a
b111 y
b111 \"
0L
b110 ;
b110 s
b110 ~"
b1 \
b1 q
b1 x"
b10 c
b10 o
b10 y"
b10 z"
b10 |"
08
b100001010011000000100000 V
b100001010011000000100000 r
b11000000100110 ]
b11000000100110 p
b1001 $#
b1001 b
b1001 f"
b1001 l"
b100000 n"
b1000 1
b1000 k"
b1000 %#
0&
#8500000
b10000000000000000 [
b10000000000000000 {"
b10000000000000000 }"
b1001 $
b1001 %
1&
#9000000
b10 &#
b1000 ^
b1000 m
b1000 }
0J
b110 :
b110 ##
b110 )#
b10 i
b10 !#
b10000000000000000 Q
b10000000000000000 "#
1L
b11111 ;
b11111 s
b11111 ~"
b0 c
b0 o
b0 y"
b0 z"
b0 |"
18
b111110000000000000000 V
b111110000000000000000 r
b111 ]
b111 p
b1000 a
b1000 y
b1000 \"
b1001 `
b1001 Y"
b1001 g"
b1010 $#
b10101100000001100000000000000100 ,
b10101100000001100000000000000100 d"
b10101100000001100000000000000100 j"
b10101100000001100000000000000100 o"
b1010 b
b1010 f"
b1010 l"
b100100 n"
b1001 1
b1001 k"
b1001 %#
0&
#9500000
b1 [
b1 {"
b1 }"
b1010 %
b1010 $
1&
#10000000
0B
b110 =
b110 S"
b110 (#
b100 .
b100 U"
b100 0
b100 T"
0M
0s"
1P
1q"
b101011 *
b101011 p"
b1001 ^
b1001 m
b1001 }
b1 &#
b10101100000001100000000000000100 +
b10101100000001100000000000000100 i"
b1100000000000000100 W
b1100000000000000100 X"
b1100000000000000100 h"
b1010 `
b1010 Y"
b1010 g"
b1001 a
b1001 y
b1001 \"
b1000 ]
b1000 p
1J
b11111 :
b11111 ##
b11111 )#
b0 i
b0 !#
b1 Q
b1 "#
b1011 $#
b10001100000001110000000000000100 ,
b10001100000001110000000000000100 d"
b10001100000001110000000000000100 j"
b10001100000001110000000000000100 o"
b1011 b
b1011 f"
b1011 l"
b101000 n"
b1010 1
b1010 k"
b1010 %#
0&
#10500000
b1011 $
b1011 %
1&
#10510000
b10 3
b10 V"
b10 -#
#11000000
09
b100 d
b100 n
b100 z
b100 ,"
b100 E"
b100 1"
b100 8"
b100 @"
b100 '"
b100 C"
b100 G"
b100 /"
b100 7"
b100 M"
b100 !"
b100 #"
b100 F"
b100 J"
1B
1Z
1f
b110 j
b100 t
b100 P"
b1110 ^
b1110 m
b1110 }
b111 =
b111 S"
b111 (#
1M
1s"
0P
0q"
b100011 *
b100011 p"
b1001 ]
b1001 p
1N
0K
0@
b110 <
b110 _"
b10 2
b10 l
b10 w
b10 a"
b100 -
b100 u
b100 Q"
b100 c"
b100 /
b100 v
b100 N"
b100 b"
b1100000000000000100 U
b1100000000000000100 k
b1100000000000000100 ]"
b1010 a
b1010 y
b1010 \"
b10001100000001110000000000000100 +
b10001100000001110000000000000100 i"
b1110000000000000100 W
b1110000000000000100 X"
b1110000000000000100 h"
b1011 `
b1011 Y"
b1011 g"
b1100 $#
b10001100000111110000000000000000 ,
b10001100000111110000000000000000 d"
b10001100000111110000000000000000 j"
b10001100000111110000000000000000 o"
b1100 b
b1100 f"
b1100 l"
b101100 n"
b1011 1
b1011 k"
b1011 %#
0&
#11500000
b1100 %
b1100 $
1&
#11510000
bx 3
bx V"
bx -#
#12000000
b11111 =
b11111 S"
b11111 (#
b0 .
b0 U"
b0 0
b0 T"
b111 j
b1111 ^
b1111 m
b1111 }
b10001100000111110000000000000000 +
b10001100000111110000000000000000 i"
b111110000000000000000 W
b111110000000000000000 X"
b111110000000000000000 h"
b1100 `
b1100 Y"
b1100 g"
0N
1K
1@
b111 <
b111 _"
bx 2
bx l
bx w
bx a"
b1110000000000000100 U
b1110000000000000100 k
b1110000000000000100 ]"
b1011 a
b1011 y
b1011 \"
0A
0L
1O
b110 ;
b110 s
b110 ~"
b10 \
b10 q
b10 x"
b100 c
b100 o
b100 y"
b100 z"
b100 |"
08
b1100000000000000100 V
b1100000000000000100 r
b1110 ]
b1110 p
b1101 $#
b1101 b
b1101 f"
b1101 l"
b110000 n"
b1100 1
b1100 k"
b1100 %#
0&
#12500000
b1101 $
b1101 %
1&
#12510000
b1 3
b1 V"
b1 -#
#13000000
19
b0 d
b0 n
b0 z
b0 ,"
b0 E"
b0 1"
b0 8"
b0 @"
b0 '"
b0 C"
b0 G"
b0 /"
b0 7"
b0 M"
b0 !"
b0 #"
b0 F"
b0 J"
0*#
b100 &#
b11111 j
b0 t
b0 P"
b1100 ^
b1100 m
b1100 }
0?
0J
b110 :
b110 ##
b110 )#
b100 i
b100 !#
1A
1L
0O
b111 ;
b111 s
b111 ~"
bx \
bx q
bx x"
b1110000000000000100 V
b1110000000000000100 r
b1111 ]
b1111 p
b11111 <
b11111 _"
b1 2
b1 l
b1 w
b1 a"
b0 -
b0 u
b0 Q"
b0 c"
b0 /
b0 v
b0 N"
b0 b"
b111110000000000000000 U
b111110000000000000000 k
b111110000000000000000 ]"
b1100 a
b1100 y
b1100 \"
b1101 `
b1101 Y"
b1101 g"
b1110 $#
b1110 b
b1110 f"
b1110 l"
b110100 n"
b1101 1
b1101 k"
b1101 %#
0&
#13500000
b10 [
b10 {"
b10 }"
b1110 %
b1110 $
1&
#14000000
b1101 ^
b1101 m
b1101 }
1*#
b10 &#
b1110 `
b1110 Y"
b1110 g"
b1101 a
b1101 y
b1101 \"
b11111 ;
b11111 s
b11111 ~"
b1 \
b1 q
b1 x"
b0 c
b0 o
b0 y"
b0 z"
b0 |"
18
b111110000000000000000 V
b111110000000000000000 r
b1100 ]
b1100 p
1?
1J
b111 :
b111 ##
b111 )#
b10 Q
b10 "#
b1111 $#
b100001110100000000100010 ,
b100001110100000000100010 d"
b100001110100000000100010 j"
b100001110100000000100010 o"
b1111 b
b1111 f"
b1111 l"
b111000 n"
b1110 1
b1110 k"
b1110 %#
0&
#14500000
b1 [
b1 {"
b1 }"
b1111 $
b1111 %
1&
#15000000
0Z
0f
1B
b1 &#
b1110 ^
b1110 m
b1110 }
b1000 F
b1000 R"
b111 =
b111 S"
b111 (#
b100 >
b100 '#
b100000000100010 .
b100000000100010 U"
b100010 0
b100010 T"
b1 h
b1 Z"
b1 w"
1D
1)
0M
0s"
b0 *
b0 p"
b11111 :
b11111 ##
b11111 )#
b0 i
b0 !#
b1 Q
b1 "#
b1101 ]
b1101 p
b1110 a
b1110 y
b1110 \"
b100001110100000000100010 +
b100001110100000000100010 i"
b100001110100000000100010 W
b100001110100000000100010 X"
b100001110100000000100010 h"
b1111 `
b1111 Y"
b1111 g"
b10000 $#
b10001100000111110000000000000000 ,
b10001100000111110000000000000000 d"
b10001100000111110000000000000000 j"
b10001100000111110000000000000000 o"
b10000 b
b10000 f"
b10000 l"
b111100 n"
b1111 1
b1111 k"
b1111 %#
0&
#15500000
b10000 %
b10000 $
1&
#15510000
b10 3
b10 V"
b10 -#
b1 5
b1 W"
b1 ,#
